{
  "headers" : { },
  "proxy" : null,
  "endpointAddress" : "https://maps.googleapis.com/maps/api/geocode/json?address={address}?key={key}",
  "method" : "GET",
  "requestBody" : null,
  "queryParams" : null,
  "sampleHttpResponseDetails" : {
    "headers" : { },
    "responseBody" : null,
    "convertedResponse" : null,
    "statusCode" : 0
  },
  "redirectEnabled" : true,
  "authDetails" : null,
  "contentType" : "text/xml"
}